auto ens160
iface ens160 inet static
address 192.168.1.72
netmask 255.255.255.0
gateway 192.168.1.1
dns-nameservers 192.168.1.254


echo "krupagj   ALL=(ALL:ALL) NOPASSWD: ALL" > /etc/sudoers.d/krupagj